{
    "name": "Bharata Wars",
    "id": "qWxCgThoa7",
    "config": {
            "costFreshRedraw": 3,
            "hoverInterval": 3.0,
            "wealthType": "Energy",
            "inviteOnlySignup": true,
            "pvpOpponentTimeout": 15.0,
            "aiMoveProbability": 50
    },
    "deck_rules": {
        "category_count": {
            "1": 4,
            "2": 7,
            "3": 7
        },
        "unique_strategy_cards": [ "Blitz", "Troop", "Alliance" ],
        "category_names": {
            "1": "Shiva",
            "2": "Mortal",
            "3": "God"
        },
        "max_duplicate_count": 100,
        "max_deck_count": 10
    },
    "default_decks": [        
        {
            "ID": 3,
            "sID": "3",
            "Name": "Deadly",
            "Desc": "Deadly deck",
            "IconName": "shiva_02",
            "DeckFile": "Deadly"
        }
    ],
    "opponents": [
        {
            "ID": 3,
            "Name": "Deadly Blade",
            "ProfilePicURL": null,
            "Level": 2,
            "RewardMultiplier": 2.5,
            "PlayerDeckDefinition": {
                "ID": 3,
                "sID": "3",
                "Name": "Deadly",
                "Desc": "Deadly deck",
                "IconName": "shiva_02",
                "DeckFile": "Deadly"
            }
        }
    ],
    "robot_opponents": [
        {
            "ID": 3,
            "Name": "Dead Defender",
            "ProfilePicURL": null,
            "Level": 2,
            "RewardMultiplier": 2.5,
            "PlayerDeckDefinition": {
                "ID": 3,
                "sID": "3",
                "Name": "Deadly",
                "Desc": "Deadly deck",
                "IconName": "shiva_02",
                "DeckFile": "Deadly"
            }
        }
    ],
    "tutorial": {
        "deck": {
            "ID": 1,
            "sID": "1",
            "Name": "Power",
            "Desc": "Power deck with abilitites",
            "IconName": "Fantasy-Deck",
            "DeckFile": "Tutorial/Player"
        },
        "ai_profile": {
            "ID": 1,
            "Name": "Basic",
            "ProfilePicURL": null,
            "Level": -1,
            "RewardMultiplier": 0.5,
            "PlayerDeckDefinition": {
                "ID": 1,
                "sID": "1",
                "Name": "Basic",
                "Desc": "Basic deck to get started",
                "IconName": "Fantasy-Deck",
                "DeckFile": "Tutorial/AI"
            }
        },
        "steps": [
            {
                "id": 1,
                "text": "Welcome to Battles of Valiant Universe!",
                "button": "Continue",
                "action": "FOCUS",
                "runTimer": false,
                "time": 0,
                "gameobject": ""
            },
            {
                "id": 2,
                "text": "The goal of the game is to get your Opponent's health to 0.",
                "button": "Continue",
                "action": "FOCUS",
                "runTimer": false,
                "time": 0,
                "gameobject": "Player-2/Display/Sprite/Power"
            },
            {
                "id": 3,
                "text": "You each start off with 5 cards in your hand.",
                "button": "Continue",
                "action": "FOCUS",
                "runTimer": false,
                "time": 0,
                "gameobject": ""
            },
            {
                "id": 4,
                "text": "This is a Battle card. Double-tap on it to see more details.",
                "button": "",
                "action": "DCLICK",
                "runTimer": true,
                "time": 0,
                "gameobject": "Player-1/HandCardsGrid/00000003-Card-3",
                "cardName": "00000003-Card-3"
            },
            {
                "id": 5,
                "text": "This is the card Attack. A card with higher attack inflicts higher damage to the opponent's cards.",
                "button": "Continue",
                "action": "FOCUS",
                "runTimer": false,
                "time": 3,
                "gameobject":"Card-3-Detail/Attack"
            },
            {
                "id": 6,
                "text": "This is the card Defense. A card with higher defense value can sustain higher attack from the opponent's cards.",
                "button": "Continue",
                "action": "FOCUS",
                "runTimer": false,
                "time": 3,
                "gameobject":"Card-3-Detail/Health"
            },
            {
                "id": 7,
                "text": "Click on the X on the top right to close the detail view.",
                "button": "Continue",
                "action": "FOCUS",
                "runTimer": true,
                "time": 3,
                "gameobject": "Card-3-Detail/Close",
                "cardName": "Card-3-Detail"
            },
            {
                "id": 8,
                "text": "This is your Energy level. You need Energy to be able to deploy your cards. You accummulate 2 additional units of Energy every 3 seconds.",
                "button": "Continue",
                "action": "FOCUS",
                "runTimer": false,
                "time": 5,
                "gameobject": "Player-1/Display/Sprite/Coins"
            },
            {
                "id": 9,
                "text": "You can select any card to play as long as you have enough Energy. If you do not have sufficient Energy or you cannot make a move, the card is highlighted in red.",
                "button": "Continue",
                "action": "FOCUS",
                "runTimer": false,
                "time": 5,
                "gameobject": "Player-1/HandCardsGrid/00000002-Card-2/Cost",
                "cardName": "00000002-Card-2"
            },
            {
                "id": 10,
                "text": "You have 45 seconds to make moves. Each such round is called a Battle. Then the cards battle each other before proceeding to the next Battle round.",
                "button": "Continue",
                "action": "FOCUS",
                "runTimer": true,
                "time": 5,
                "gameobject": "Timer"
            },
            {
                "id": 11,
                "text": "There are three Battle channels to place Battle cards in. Each channel is separate, but you can attack from any of them. Be careful; it also works the other way around!",
                "button": "Continue",
                "action": "FOCUS",
                "runTimer": false,
                "time": 10,
                "gameobject": ""
            },
            {
                "id": 12,
                "text": "AI played a card to the 2nd channel.",
                "button": "Continue",
                "action": "AIMOVE",
                "runTimer": true,
                "time": 10,
                "gameobject": "Player-2/HandCardsGrid/00000003-Card-3",
                "cardName":"00000003-Card-3",
                "channelName": "Channel-2"
            },
            {
                "id": 13,
                "text": "Move this Battle card to the highlighted channel.",
                "button": "",
                "action": "PMOVE",
                "runTimer": true,
                "time": 15,
                "gameobject": "Player-1/HandCardsGrid/00000002-Card-2",
                "cardName":"00000002-Card-2",
                "channelName": "Channel-2"
            },
            {
                "id": 14,
                "text": "This number indicates the amount of damage you stand to take at this point. That's because the 8 attack of the opposing card overpowers the 7 defense of your card.",
                "button": "Continue",
                "action": "FOCUS",
                "runTimer": true,
                "time": 18,
                "gameobject": "Channels/Channel-2/Player-1/Damage"
            },
            {
                "id": 15,
                "text": "Notice the different border colors of the Battle cards? They represent different Battle cards types: Golden are your Hero cards, Red are your Hero Ability Cards, and Green are your Ally cards.",
                "button": "Continue",
                "action": "FOCUS",
                "runTimer": true,
                "time": 23,
                "gameobject": "Channels/Channel-2/Player-1/Grid/00000001-Card-2/Indicators"
            },
            {
                "id": 16,
                "text": "AI played another card to the same channel. You can stack up to 3 cards on each channel.",
                "button": "Continue",
                "action": "AIMOVE",
                "runTimer": false,
                "time": 25,
                "gameobject": "Player-2/HandCardsGrid/00000002-Card-2",
                "cardName":"00000002-Card-2",
                "channelName": "Channel-2"
            },
            {
                "id": 17,
                "text": "Now let's show the AI what we're made of... Go ahead and play this card to the highlighted channel.",
                "button": "",
                "action": "PMOVE",
                "runTimer": true,
                "time": 25,
                "gameobject": "Player-1/HandCardsGrid/00000005-Card-5",
                "cardName":"00000005-Card-5",
                "channelName": "Channel-2"
            },
            {
                "id": 18,
                "text": "Hmm... our attack is still weaker than the opponent's. Not to worry, we will activate a Combo. Some more basics first.",
                "button": "Continue",
                "action": "FOCUS",
                "runTimer": true,
                "time": 29,
                "gameobject": "Channels/Channel-2/Player-1/Damage"
            },
            {
                "id": 19,
                "text": "Notice the different border colors of the battle cards? They represent different battle cards types: Golden are your Hero cards, Red are your Hero Ability Cards, and Green are your Ally cards.",
                "button": "Continue",
                "action": "FOCUS",
                "runTimer": true,
                "time": 32,
                "gameobject": "Player-1/HandCardsGrid/00000003-Card-3"
            },
            {
                "id": 20,
                "text": "When you match certain Battle cards together, you may get surprising advantages! These are called Combos, and each deck contains Combos of different kinds. You can see them here. Double-tap on them to learn more.",
                "button": "Continue",
                "action": "FOCUS",
                "runTimer": true,
                "time": 35,
                "gameobject": "Static Channels/StrategyChannel"
            },
            {
                "id": 21,
                "text": "Now we will activate the Hypershot Combo. Move this card to the highlighted channel to combine 1 Bloodshot card with 2 Ability cards.",
                "button": "",
                "action": "PMOVE",
                "runTimer": true,
                "time": 40,
                "gameobject": "Player-1/HandCardsGrid/00000004-Card-4",
                "cardName":"00000004-Card-4",
                "channelName": "Channel-2"
            },
            {
                "id": 22,
                "text": "Excellent. Good work! ",
                "button": "Continue",
                "action": "FOCUS",
                "runTimer": true,
                "time": 41,
                "gameobject": ""
            },
            {
                "id": 23,
                "text": "The Battle has started! Once the timer ends, everything freezes.",
                "button": "Continue",
                "action": "FOCUS",
                "runTimer": false,
                "time": 45,
                "gameobject": ""
            },
            {
                "id": 24,
                "text": "You and your opponent take damage based on the cards played...",
                "button": "Continue",
                "action": "FOCUS",
                "runTimer": false,
                "time": 45,
                "gameobject": ""
            },
            {
                "id": 25,
                "text": "One channel at a time.",
                "button": "Continue",
                "action": "FOCUS",
                "runTimer": false,
                "time": 45,
                "gameobject": ""
            },
            {
                "id": 26,
                "text": "When you have multiple cards on a channel, the attack values of all your cards are added together to deal damage to the opponent's cards...",
                "button": "Continue",
                "action": "FOCUS",
                "runTimer": false,
                "time": 45,
                "gameobject": ""
            },
            {
                "id": 27,
                "text": "And cards are dealt damage inside out. Meaning, the cards closest to the frontline are hit first with the opponent's aggregate attack, and so on.",
                "button": "Continue",
                "action": "FOCUS",
                "runTimer": true,
                "time": 45,
                "gameobject": ""
            },
            {
                "id": 28,
                "text": "The second Battle began, and the AI played a card to the 1st channel.",
                "button": "Continue",
                "action": "AIMOVE",
                "runTimer": true,
                "time": 3,
                "gameobject": "Player-2/HandCardsGrid/00000001-Card-1",
                "cardName":"00000001-Card-1",
                "channelName": "Channel-1"
            },
            {
                "id": 29,
                "text": "We could counter the attack on the first channel by playing one of our own Battle cards, but I'm going to show you another cool trick.",
                "button": "Continue",
                "action": "FOCUS",
                "runTimer": false,
                "time": 5,
                "gameobject": ""
            },
            {
                "id": 30,
                "text": "This is a type of Special card called Shield. It gives additional protection from opponent's attacks during a Battle.",
                "button": "Continue",
                "action": "FOCUS",
                "runTimer": false,
                "time": 5,
                "gameobject": "Player-1/HandCardsGrid/00000006-Card-12"
            },
            {
                "id": 31,
                "text": "Special cards like Shield can only be played to this Special channel. Go ahead and play the Shield card to the Special channel.",
                "button": "",
                "action": "PMOVE",
                "runTimer": false,
                "time": 5,
                "gameobject": "Player-1/HandCardsGrid/00000006-Card-12",
                "cardName":"00000006-Card-12",
                "channelName": "BattleChannel"
            },
            {
                "id": 32,
                "text": "Keep in mind that, like the Battle channels, you can only group up to 3 Special cards at a time.",
                "button": "Continue",
                "action": "FOCUS",
                "runTimer": true,
                "time": 5,
                "gameobject": "Static Channels/BattleChannel"
            },
            {
                "id": 33,
                "text": "This is another Special card called Energy Boost that, you guessed it, gives you energy boost each Battle.",
                "button": "Continue",
                "action": "FOCUS",
                "runTimer": true,
                "time": 7,
                "gameobject": "Player-1/HandCardsGrid/00000007-Card-20"
            },
            {
                "id": 34,
                "text": "Go ahead and play the Energy Boost card to the Special channel.",
                "button": "",
                "action": "PMOVE",
                "runTimer": true,
                "time": 9,
                "gameobject": "Player-1/HandCardsGrid/00000007-Card-20",
                "cardName":"00000007-Card-20",
                "channelName": "BattleChannel"
            },
            {
                "id": 35,
                "text": "Great. One last thing before I let you go... Notice this green button?",
                "button": "Continue",
                "action": "FOCUS",
                "runTimer": false,
                "time": 12,
                "gameobject": "Player-1/Display/Sprite/Redraw"
            },
            {
                "id": 36,
                "text": "It lets you draw a fresh set of 5 cards in case you don't like the remaining cards or if you've played all the drawn cards already.",
                "button": "Continue",
                "action": "FOCUS",
                "runTimer": false,
                "time": 12,
                "gameobject": "Player-1/Display/Sprite/Redraw"
            },
            {
                "id": 37,
                "text": "The number mentioned is the Energy units required to draw a fresh set of cards. Go ahead and give it a try...",
                "button": "Continue",
                "action": "FOCUS",
                "runTimer": true,
                "time": 12,
                "gameobject": "Player-1/Display/Sprite/Redraw"
            },
            {
                "id": 38,
                "text": "And that's about all you need to know for now... you can take over the game from here. Good Luck!",
                "button": "Continue",
                "action": "FOCUS",
                "runTimer": true,
                "time": 15,
                "gameobject": ""
            }
        ]
    }
}
